^W+^k---------------------------------------------------------------------------^W+
^k|               ^WWelcome back to ^yP^Yatc^yh ^YD^yay^Yz ^yD^Yevelopmen^yt^W!                     ^k|
^W+^k---------------------------------------------------------------------------^W+

