^W+^k--------------------------------------------------------------------------^W+
^k|                              ^BW^bizlist & Staf^Bf        ^k                     |
^k|                        ^bP^Batch Dayz Development Por^bt^k                       |
^W+^k--------------------------------------------------------------------------^W+
^k|                                                                          |
^k|                               ^rImplementors                         ^k      |
^k|                               ^R~~~~~~~~~~~~                           ^k    |
^k|    ^yHansth          ^YCoding, Admin, Website      ^yhansth@patchdayz.net^k      |
^k|    ^yDaemus          ^YWorld, Admin                ^ydaemus@patchdayz.net  ^k    |
^k|                                                                          |
^k|                        ^rAssistant to the Implementors                     ^k|
^k|                        ^R~~~~~~~~~~~~~~~~~~~~~~~~~~~~~                     ^k|
^k|                                                                          |
^k|                               ^rGreater Gods                               ^k|
^k|                               ^R~~~~~~~~~~~~                               ^k|
^k|                                                                          |
^k|                                   ^rGods                                   ^k|
^k|                                   ^R~~~~                                   ^k|
^k|                                                                          |
^k|                               ^rLesser Gods                                ^k|
^k|                               ^R~~~~~~~~~~~                                ^k|
^k|                                                                          |
^k|                                ^rDemi Gods                                 ^k|
^k|                                ^R~~~~~~~~~                                 ^k|
^k|                                                                          |
^W+^k--------------------------------------------------------------------------^W+
^k|                        ^BUpdated: ^bNovember 23 2015^k                         |
^W+^k--------------------------------------------------------------------------^W+^N
